<?xml version="1.0" encoding="UTF-8" standalone="no"?>
<!-- Generator: Adobe Illustrator 15.1.0, SVG Export Plug-In . SVG Version: 6.00 Build 0)  -->

<svg
   xmlns:dc="http://purl.org/dc/elements/1.1/"
   xmlns:cc="http://creativecommons.org/ns#"
   xmlns:rdf="http://www.w3.org/1999/02/22-rdf-syntax-ns#"
   xmlns:svg="http://www.w3.org/2000/svg"
   xmlns="http://www.w3.org/2000/svg"
   xmlns:sodipodi="http://sodipodi.sourceforge.net/DTD/sodipodi-0.dtd"
   xmlns:inkscape="http://www.inkscape.org/namespaces/inkscape"
   version="1.1"
   id="Layer_2"
   x="0px"
   y="0px"
   width="775.52899"
   height="186.595"
   viewBox="0 0 775.52899 186.595"
   enable-background="new 0 0 864 252"
   xml:space="preserve"
   inkscape:version="0.48.4 r9939"
   sodipodi:docname="jstruct_logo_lg.svg"><metadata
     id="metadata25"><rdf:RDF><cc:Work
         rdf:about=""><dc:format>image/svg+xml</dc:format><dc:type
           rdf:resource="http://purl.org/dc/dcmitype/StillImage" /></cc:Work></rdf:RDF></metadata><defs
     id="defs23" /><sodipodi:namedview
     pagecolor="#ffffff"
     bordercolor="#666666"
     borderopacity="1"
     objecttolerance="10"
     gridtolerance="10"
     guidetolerance="10"
     inkscape:pageopacity="0"
     inkscape:pageshadow="2"
     inkscape:window-width="640"
     inkscape:window-height="480"
     id="namedview21"
     showgrid="false"
     fit-margin-top="2"
     fit-margin-right="2"
     fit-margin-bottom="2"
     fit-margin-left="2"
     inkscape:zoom="0.42200159"
     inkscape:cx="393.545"
     inkscape:cy="92.015"
     inkscape:window-x="433"
     inkscape:window-y="255"
     inkscape:window-maximized="0"
     inkscape:current-layer="Layer_2" /><path
     d="M 5.739,184.082 2,173.754 C 16.938,168.707 24.416,160.572 24.416,137.94 V 5.239 h 52.727 v 107.658 c 0,39.765 -26.589,71.185 -71.404,71.185 z"
     id="path3"
     inkscape:connector-curvature="0"
     style="fill:#f05a28" /><path
     d="m 554.543,139.81 c -12.532,0 -25.717,-6.517 -29.824,-11.136 0,0 -10.594,11.136 -28.751,11.136 -21.615,0 -40.633,-10.3 -40.633,-34.247 V 36.642 h 46.254 v 71.651 c 0,9.661 3.889,14.288 10.803,14.288 6.491,0 9.508,-4.835 9.508,-14.288 V 36.642 h 46.263 v 100.226 c -10e-4,-0.001 -3.462,2.942 -13.62,2.942 z"
     id="path5"
     inkscape:connector-curvature="0" /><path
     d="m 107.817,177.295 c -13.619,0 -24.642,-11.025 -24.642,-24.638 0,-13.619 11.022,-24.425 24.642,-24.425 13.613,0 24.644,10.806 24.644,24.425 10e-4,13.612 -11.03,24.638 -24.644,24.638 z"
     id="path7"
     inkscape:connector-curvature="0"
     style="fill:#f05a28" /><path
     d="m 417.6,36.473 c -0.488,0.046 -11.792,-0.123 -16.836,6.47 v -6.47 h -43.891 l -0.169,103.273 h 46.477 V 78.312 c 0,-18.3 7.913,-23.069 16.887,-23.619 l 24.359,0.037 0.006,-18.257 H 417.6 z"
     id="path9"
     inkscape:connector-curvature="0" /><g
     id="g11"
     transform="translate(-38.455,-31.42)"><path
       d="m 227.944,176.509 c -29.619,0 -42.342,-13.143 -46.514,-17.938 l 4.172,-11.89 c 12.932,8.551 27.741,12.931 40.465,12.931 11.472,0 20.858,-4.797 20.858,-15.018 0,-19.815 -64.452,-23.987 -64.452,-68.623 0,-26.282 25.864,-42.551 55.066,-42.551 22.944,0 39.422,5.84 48.391,17.104 l -6.674,9.595 c -5.633,-6.257 -21.902,-9.595 -33.582,-9.595 -10.221,0 -20.858,2.92 -20.858,13.349 0,18.564 66.329,19.815 66.329,65.703 0,29.202 -25.865,46.933 -63.201,46.933 z"
       id="path13"
       inkscape:connector-curvature="0" /></g><path
     d="m 678.703,123.037 h -20.696 l -5.866,-0.058 c -17.14,-0.812 -30.147,-14.335 -30.147,-34.86 0,-17.662 10.262,-33.594 29.064,-35.009 L 678.599,53.092 678.597,36.1 h -29.474 c -4.221,0.013 -7.187,0.023 -7.246,0.023 -30.05,0 -63.985,17.055 -63.985,51.995 0,34.516 25.766,51.417 54.931,51.822 l 45.881,0.009 v -16.912 z"
     id="path15"
     inkscape:connector-curvature="0" /><path
     d="M 345.516,68.032 V 36.443 H 314.933 V 5.247 h -52.878 v 107.961 c 0,39.881 26.659,71.387 71.607,71.387 l 3.749,-10.354 c -14.987,-5.07 -22.479,-13.219 -22.479,-35.916 V 68.032 h 30.584 z"
     id="path17"
     inkscape:connector-curvature="0" /><path
     d="M 773.529,68.029 V 36.44 H 742.946 V 5.245 h -52.878 v 107.96 c 0,39.883 26.659,71.389 71.607,71.389 l 3.749,-10.355 C 750.437,169.171 742.945,161.02 742.945,138.323 V 68.029 h 30.584 z"
     id="path19"
     inkscape:connector-curvature="0" /></svg>